<svg xmlns="http://www.w3.org/2000/svg" xmlns:xlink="http://www.w3.org/1999/xlink" width="74" height="74" viewBox="0 0 74 74">
  <defs>
    <filter id="Ellipse_5" x="0" y="0" width="74" height="74" filterUnits="userSpaceOnUse">
      <feOffset input="SourceAlpha"/>
      <feGaussianBlur stdDeviation="5" result="blur"/>
      <feFlood flood-color="#f6aea2"/>
      <feComposite operator="in" in2="blur"/>
      <feComposite in="SourceGraphic"/>
    </filter>
  </defs>
  <g id="Group_671" data-name="Group 671" transform="translate(-765 -2885)">
    <g transform="matrix(1, 0, 0, 1, 765, 2885)" filter="url(#Ellipse_5)">
      <circle id="Ellipse_5-2" data-name="Ellipse 5" cx="22" cy="22" r="22" transform="translate(15 15)" fill="#f6aea2"/>
    </g>
    <path id="Polygon_1" data-name="Polygon 1" d="M9,0l9,16H0Z" transform="translate(812 2913) rotate(90)" fill="#fff"/>
  </g>
</svg>
