<svg xmlns="http://www.w3.org/2000/svg" width="19.072" height="19.072" viewBox="0 0 19.072 19.072">
  <g id="Group_664" data-name="Group 664" transform="translate(-791.824 -1393.253)">
    <line id="Line_33" data-name="Line 33" x2="16.243" y2="16.243" transform="translate(793.238 1394.667)" fill="none" stroke="#393f93" stroke-linecap="round" stroke-width="2"/>
    <line id="Line_34" data-name="Line 34" x2="1.547" y2="14.31" transform="translate(807.935 1396.601)" fill="none" stroke="#393f93" stroke-linecap="round" stroke-width="2"/>
    <line id="Line_35" data-name="Line 35" x1="12.763" transform="translate(796.719 1410.91)" fill="none" stroke="#393f93" stroke-linecap="round" stroke-width="2"/>
  </g>
</svg>
