<svg id="Group_573" data-name="Group 573" xmlns="http://www.w3.org/2000/svg" width="63.339" height="63.339" viewBox="0 0 63.339 63.339">
  <path id="Path_99" data-name="Path 99" d="M77.591,0H42.857V63.34h44.95v-52.1Z" transform="translate(-33.663 -0.001)" fill="#f6aea2"/>
  <path id="Path_100" data-name="Path 100" d="M207.5,11.239H197.281V0h-2.043V13.282H207.5Z" transform="translate(-153.352 -0.001)" fill="#393f93"/>
  <path id="Path_101" data-name="Path 101" d="M115.073,100H80.029l-7.662,5.108,7.662,5.108h35.044a5.108,5.108,0,1,0,0-10.216Zm-35.756,2.93v4.355l-3.266-2.177Zm33.713,5.243H81.36v-2.043h28.6v-2.043H81.36v-2.043h31.67Zm2.043,0v-6.13a3.065,3.065,0,1,1,0,6.13Z" transform="translate(-56.842 -78.547)" fill="#393f93"/>
  <path id="Path_102" data-name="Path 102" d="M0,195.255H49.037v-14.3H0ZM2.043,183H4.086v3.065H6.13V183H8.173v3.065h2.043V183h2.043V188.1H14.3V183h2.043v3.065h2.043V183h2.043v3.065h2.043V183h2.043V188.1h2.043V183h2.043v3.065h2.043V183h2.043v3.065h2.043V183h2.043V188.1h2.043V183h8.173v10.216H2.043Z" transform="translate(0 -142.132)" fill="#393f93"/>
  <path id="Path_103" data-name="Path 103" d="M193.541,200a3.065,3.065,0,1,0,3.065,3.065A3.069,3.069,0,0,0,193.541,200Zm0,4.086a1.022,1.022,0,1,1,1.022-1.022A1.023,1.023,0,0,1,193.541,204.087Z" transform="translate(-149.612 -157.094)" fill="#393f93"/>
  <rect id="Rectangle_68" data-name="Rectangle 68" width="24.518" height="2.043" transform="translate(14.302 5.108)" fill="#393f93"/>
  <rect id="Rectangle_69" data-name="Rectangle 69" width="24.518" height="2.043" transform="translate(14.302 10.216)" fill="#393f93"/>
  <rect id="Rectangle_70" data-name="Rectangle 70" width="24.518" height="2.043" transform="translate(14.302 15.324)" fill="#393f93"/>
</svg>
